{"totalRecords":337,"totalPages":17,"startIndex":0,"endIndex":20,"control":{"currentPage":0,"pageSize":20},"records":[{"type":"camping","namingId":"STAN_1040013","namingLabel":"FRANK RAINES REGIONAL PARK","id":1040013,"name":"FRANK RAINES REGIONAL PARK","targetItem":false,"matchingFilters":true,"reservableType":null,"available":false,"proximity":62.91,"summary":null,"details":{"id":1040013,"contrCode":"STAN","stateCodes":["CA"],"name":"FRANK RAINES REGIONAL PARK","baseURL":"/camping/frank-raines-regional-park/r/facilityDetails.do?contractCode=STAN&parkId=1040013","imageURL":"/webphotos/STAN/pid1040013/0/180x120.jpg","crowdriffId":null,"verifiablecampwiz.Availability":true,"campwiz.Availability":{"available":true,"reservableType":"WEB_AVAILABLE"},"affiliation":{"facilityID":0,"name":"","url":null,"agencies":[{"id":1040000,"code":"Stanislaus Agency","name":"Stanislaus Agency","logo":null,"url":null}]},"facilityTypes":["camping"],"description":null,"flexResult":null,"cta":{"caption":"label_cta_book_now","url":null,"type":null},"dayUse":false,"dayUseOnly":false,"ratingSupport":false,"rating":null,"actvAdvInd":null,"favoriteSupport":true,"favorite":false,"webAddress":null,"coordinates":{"latitude":37.4222222,"latitudeDec":null,"latitudeDegMinSec":null,"longitude":-121.3752778,"longitudeDec":null,"longitudeDegMinSec":null},"hiddenOnMap":false,"crossOverCustomLanding":false,"legacyRequired":false,"lineOfBusinesses":["CAMPING"],"offeringSupport":[{"business":"CAMPING","type":"LEGACY","url":"/unifSearchInterface.do?interface=campavdetails&contractCode=STAN&parkId=1040013&legacy=true"}],"nonClientFacility":false},"logoSrc":null},{"type":"camping","namingId":"PRCG_1060800","namingLabel":"Clear Lake Campground","id":1060800,"name":"Clear Lake Campground","targetItem":false,"matchingFilters":true,"reservableType":null,"available":false,"proximity":81.47,"summary":null,"details":{"id":1060800,"contrCode":"PRCG","stateCodes":["CA"],"name":"Clear Lake Campground","baseURL":"/camping/clear-lake-campground/r/facilityDetails.do?contractCode=PRCG&parkId=1060800","imageURL":"/webphotos/PRCG/pid1060800/0/180x120.jpg","crowdriffId":null,"verifiablecampwiz.Availability":true,"campwiz.Availability":{"available":true,"reservableType":"WEB_AVAILABLE"},"affiliation":{"facilityID":0,"name":"","url":null,"agencies":[{"id":1060000,"code":"Priv Campg Ag","name":"Private Campgrounds","logo":null,"url":null}]},"facilityTypes":["camping"],"description":null,"flexResult":null,"cta":{"caption":"label_cta_book_now","url":null,"type":null},"dayUse":false,"dayUseOnly":false,"ratingSupport":false,"rating":null,"actvAdvInd":null,"favoriteSupport":true,"favorite":false,"webAddress":null,"coordinates":{"latitude":38.9261,"latitudeDec":null,"latitudeDegMinSec":null,"longitude":-122.6176,"longitudeDec":null,"longitudeDegMinSec":null},"hiddenOnMap":false,"crossOverCustomLanding":false,"legacyRequired":false,"lineOfBusinesses":["CAMPING"],"offeringSupport":[{"business":"CAMPING","type":"LEGACY","url":"/unifSearchInterface.do?interface=campavdetails&contractCode=PRCG&parkId=1060800&legacy=true"}],"nonClientFacility":false},"logoSrc":null},{"type":"camping","namingId":"STAN_1040012","namingLabel":"WOODWARD RESERVOIR REGIONAL PARK","id":1040012,"name":"WOODWARD RESERVOIR REGIONAL PARK","targetItem":false,"matchingFilters":true,"reservableType":null,"available":false,"proximity":85.81,"summary":null,"details":{"id":1040012,"contrCode":"STAN","stateCodes":["CA"],"name":"WOODWARD RESERVOIR REGIONAL PARK","baseURL":"/camping/woodward-reservoir-regional-park/r/facilityDetails.do?contractCode=STAN&parkId=1040012","imageURL":"/webphotos/STAN/pid1040012/0/180x120.jpg","crowdriffId":null,"verifiablecampwiz.Availability":true,"campwiz.Availability":{"available":true,"reservableType":"WEB_AVAILABLE"},"affiliation":{"facilityID":0,"name":"","url":null,"agencies":[{"id":1040000,"code":"Stanislaus Agency","name":"Stanislaus Agency","logo":null,"url":null}]},"facilityTypes":["camping"],"description":null,"flexResult":null,"cta":{"caption":"label_cta_book_now","url":null,"type":null},"dayUse":false,"dayUseOnly":false,"ratingSupport":false,"rating":null,"actvAdvInd":null,"favoriteSupport":true,"favorite":false,"webAddress":null,"coordinates":{"latitude":37.8469444,"latitudeDec":null,"latitudeDegMinSec":null,"longitude":-120.8770056,"longitudeDec":null,"longitudeDegMinSec":null},"hiddenOnMap":false,"crossOverCustomLanding":false,"legacyRequired":false,"lineOfBusinesses":["CAMPING"],"offeringSupport":[{"business":"CAMPING","type":"LEGACY","url":"/unifSearchInterface.do?interface=campavdetails&contractCode=STAN&parkId=1040012&legacy=true"}],"nonClientFacility":false},"logoSrc":null},{"type":"camping","namingId":"STAN_1040011","namingLabel":"MODESTO RESERVOIR REGIONAL PARK","id":1040011,"name":"MODESTO RESERVOIR REGIONAL PARK","targetItem":false,"matchingFilters":true,"reservableType":null,"available":false,"proximity":98.04,"summary":null,"details":{"id":1040011,"contrCode":"STAN","stateCodes":["CA"],"name":"MODESTO RESERVOIR REGIONAL PARK","baseURL":"/camping/modesto-reservoir-regional-park/r/facilityDetails.do?contractCode=STAN&parkId=1040011","imageURL":"/webphotos/STAN/pid1040011/0/180x120.jpg","crowdriffId":null,"verifiablecampwiz.Availability":true,"campwiz.Availability":{"available":true,"reservableType":"WEB_AVAILABLE"},"affiliation":{"facilityID":0,"name":"","url":null,"agencies":[{"id":1040000,"code":"Stanislaus Agency","name":"Stanislaus Agency","logo":null,"url":null}]},"facilityTypes":["camping"],"description":null,"flexResult":null,"cta":{"caption":"label_cta_book_now","url":null,"type":null},"dayUse":false,"dayUseOnly":false,"ratingSupport":false,"rating":null,"actvAdvInd":null,"favoriteSupport":true,"favorite":false,"webAddress":null,"coordinates":{"latitude":37.6597222,"latitudeDec":null,"latitudeDegMinSec":null,"longitude":-120.6555556,"longitudeDec":null,"longitudeDegMinSec":null},"hiddenOnMap":false,"crossOverCustomLanding":false,"legacyRequired":false,"lineOfBusinesses":["CAMPING"],"offeringSupport":[{"business":"CAMPING","type":"LEGACY","url":"/unifSearchInterface.do?interface=campavdetails&contractCode=STAN&parkId=1040011&legacy=true"}],"nonClientFacility":false},"logoSrc":null},{"type":"camping","namingId":"PRCG_1073051","namingLabel":"Yosemite Ridge Resort","id":1073051,"name":"Yosemite Ridge Resort","targetItem":false,"matchingFilters":true,"reservableType":null,"available":false,"proximity":130.33,"summary":null,"details":{"id":1073051,"contrCode":"PRCG","stateCodes":["CA"],"name":"Yosemite Ridge Resort","baseURL":"/camping/yosemite-ridge-resort/r/facilityDetails.do?contractCode=PRCG&parkId=1073051","imageURL":"/webphotos/PRCG/pid1073051/0/180x120.jpg","crowdriffId":null,"verifiablecampwiz.Availability":true,"campwiz.Availability":{"available":true,"reservableType":"WEB_AVAILABLE"},"affiliation":{"facilityID":0,"name":"","url":null,"agencies":[{"id":1060000,"code":"Priv Campg Ag","name":"Private Campgrounds","logo":null,"url":null}]},"facilityTypes":["camping"],"description":null,"flexResult":null,"cta":{"caption":"label_cta_book_now","url":null,"type":null},"dayUse":false,"dayUseOnly":false,"ratingSupport":false,"rating":null,"actvAdvInd":null,"favoriteSupport":true,"favorite":false,"webAddress":null,"coordinates":{"latitude":37.8174306,"latitudeDec":null,"latitudeDegMinSec":null,"longitude":-120.0599806,"longitudeDec":null,"longitudeDegMinSec":null},"hiddenOnMap":false,"crossOverCustomLanding":false,"legacyRequired":false,"lineOfBusinesses":["CAMPING"],"offeringSupport":[{"business":"CAMPING","type":"LEGACY","url":"/unifSearchInterface.do?interface=campavdetails&contractCode=PRCG&parkId=1073051&legacy=true"}],"nonClientFacility":false},"logoSrc":null},{"type":"camping","namingId":"FLST_752208","namingLabel":"KIRBY COVE CAMPGROUND","id":752208,"name":"KIRBY COVE CAMPGROUND","targetItem":false,"matchingFilters":true,"reservableType":null,"available":false,"proximity":6.34,"summary":null,"details":{"id":752208,"contrCode":"FLST","stateCodes":["CA"],"name":"KIRBY COVE CAMPGROUND","baseURL":null,"imageURL":null,"crowdriffId":null,"verifiablecampwiz.Availability":false,"campwiz.Availability":null,"affiliation":{"facilityID":0,"name":"","url":null,"agencies":[{"id":751940,"code":"NPS","name":"NPS","logo":null,"url":null}]},"facilityTypes":["camping"],"description":null,"flexResult":null,"cta":{"caption":"label_cta_check_campwiz.Availability","url":null,"type":"LISTING"},"dayUse":true,"dayUseOnly":true,"ratingSupport":false,"rating":null,"actvAdvInd":null,"favoriteSupport":true,"favorite":false,"webAddress":null,"coordinates":{"latitude":37.84035,"latitudeDec":null,"latitudeDegMinSec":null,"longitude":-122.4888889,"longitudeDec":null,"longitudeDegMinSec":null},"hiddenOnMap":false,"crossOverCustomLanding":false,"legacyRequired":false,"lineOfBusinesses":null,"offeringSupport":null,"nonClientFacility":true},"logoSrc":null},{"type":"camping","namingId":"FLST_752142","namingLabel":"BICENTENNIAL CAMPGROUND","id":752142,"name":"BICENTENNIAL CAMPGROUND","targetItem":false,"matchingFilters":true,"reservableType":null,"available":false,"proximity":6.83,"summary":null,"details":{"id":752142,"contrCode":"FLST","stateCodes":["CA"],"name":"BICENTENNIAL CAMPGROUND","baseURL":null,"imageURL":null,"crowdriffId":null,"verifiablecampwiz.Availability":false,"campwiz.Availability":null,"affiliation":{"facilityID":0,"name":"","url":null,"agencies":[{"id":751940,"code":"NPS","name":"NPS","logo":null,"url":null}]},"facilityTypes":["camping"],"description":null,"flexResult":null,"cta":{"caption":"label_cta_check_campwiz.Availability","url":null,"type":"LISTING"},"dayUse":true,"dayUseOnly":true,"ratingSupport":false,"rating":null,"actvAdvInd":null,"favoriteSupport":true,"favorite":false,"webAddress":null,"coordinates":{"latitude":37.8308917,"latitudeDec":null,"latitudeDegMinSec":null,"longitude":-122.5246639,"longitudeDec":null,"longitudeDegMinSec":null},"hiddenOnMap":false,"crossOverCustomLanding":false,"legacyRequired":false,"lineOfBusinesses":null,"offeringSupport":null,"nonClientFacility":true},"logoSrc":null},{"type":"camping","namingId":"SLST_750151","namingLabel":"ANGEL ISLAND SP","id":750151,"name":"ANGEL ISLAND SP","targetItem":false,"matchingFilters":true,"reservableType":null,"available":false,"proximity":7.5,"summary":null,"details":{"id":750151,"contrCode":"SLST","stateCodes":["CA"],"name":"ANGEL ISLAND SP","baseURL":null,"imageURL":null,"crowdriffId":null,"verifiablecampwiz.Availability":false,"campwiz.Availability":null,"affiliation":{"facilityID":0,"name":"","url":null,"agencies":[{"id":750010,"code":"CA State Parks","name":"California State Parks","logo":null,"url":null}]},"facilityTypes":["camping"],"description":null,"flexResult":null,"cta":{"caption":"label_cta_check_campwiz.Availability","url":null,"type":"LISTING"},"dayUse":true,"dayUseOnly":true,"ratingSupport":false,"rating":null,"actvAdvInd":null,"favoriteSupport":true,"favorite":false,"webAddress":null,"coordinates":{"latitude":37.8641667,"latitudeDec":null,"latitudeDegMinSec":null,"longitude":-122.4308333,"longitudeDec":null,"longitudeDegMinSec":null},"hiddenOnMap":false,"crossOverCustomLanding":false,"legacyRequired":false,"lineOfBusinesses":null,"offeringSupport":null,"nonClientFacility":true},"logoSrc":null},{"type":"camping","namingId":"ELSI_740179","namingLabel":"San Francisco RV Resort","id":740179,"name":"San Francisco RV Resort","targetItem":false,"matchingFilters":true,"reservableType":null,"available":false,"proximity":8.08,"summary":null,"details":{"id":740179,"contrCode":"ELSI","stateCodes":["CA"],"name":"San Francisco RV Resort","baseURL":"/unifSearchInterface.do?interface=camping&contractCode=ELSI&parkId=740179","imageURL":"/webphotos/ELSI/pid740179/0/180x120.jpg","crowdriffId":null,"verifiablecampwiz.Availability":false,"campwiz.Availability":null,"affiliation":{"facilityID":0,"name":"","url":null,"agencies":[{"id":740001,"code":"ELS Agency","name":"Encore","logo":null,"url":null}]},"facilityTypes":["camping"],"description":null,"flexResult":null,"cta":{"caption":"label_cta_check_campwiz.Availability","url":"http://www.rvonthego.com/california/san-francisco-rv-resort/?utm_source=Reserve%20America&utm_medium=directory&utm_campaign=Reserve%20America%20Directory","type":"LISTING"},"dayUse":false,"dayUseOnly":false,"ratingSupport":false,"rating":null,"actvAdvInd":null,"favoriteSupport":true,"favorite":false,"webAddress":"http://www.rvonthego.com/california/san-francisco-rv-resort/?utm_source=Reserve%20America&utm_medium=directory&utm_campaign=Reserve%20America%20Directory","coordinates":{"latitude":37.6460583,"latitudeDec":null,"latitudeDegMinSec":null,"longitude":-122.4921972,"longitudeDec":null,"longitudeDegMinSec":null},"hiddenOnMap":false,"crossOverCustomLanding":false,"legacyRequired":false,"lineOfBusinesses":["CAMPING"],"offeringSupport":[{"business":"CAMPING","type":"LEGACY","url":"/unifSearchInterface.do?interface=campavdetails&contractCode=ELSI&parkId=740179&legacy=true"}],"nonClientFacility":false},"logoSrc":null},{"type":"camping","namingId":"FLST_752134","namingLabel":"Commercial Carrier Parking at Muir Woods","id":752134,"name":"Commercial Carrier Parking at Muir Woods","targetItem":false,"matchingFilters":true,"reservableType":null,"available":false,"proximity":11.8,"summary":null,"details":{"id":752134,"contrCode":"FLST","stateCodes":["CA"],"name":"Commercial Carrier Parking at Muir Woods","baseURL":null,"imageURL":null,"crowdriffId":null,"verifiablecampwiz.Availability":false,"campwiz.Availability":null,"affiliation":{"facilityID":0,"name":"","url":null,"agencies":[{"id":751940,"code":"NPS","name":"NPS","logo":null,"url":null}]},"facilityTypes":["camping"],"description":null,"flexResult":null,"cta":{"caption":"label_cta_check_campwiz.Availability","url":null,"type":"LISTING"},"dayUse":true,"dayUseOnly":true,"ratingSupport":false,"rating":null,"actvAdvInd":null,"favoriteSupport":true,"favorite":false,"webAddress":null,"coordinates":{"latitude":37.8928333,"latitudeDec":null,"latitudeDegMinSec":null,"longitude":-122.5724167,"longitudeDec":null,"longitudeDegMinSec":null},"hiddenOnMap":false,"crossOverCustomLanding":false,"legacyRequired":false,"lineOfBusinesses":null,"offeringSupport":null,"nonClientFacility":true},"logoSrc":null},{"type":"camping","namingId":"SLST_750206","namingLabel":"MOUNT TAMALPAIS SP","id":750206,"name":"MOUNT TAMALPAIS SP","targetItem":false,"matchingFilters":true,"reservableType":null,"available":false,"proximity":13.16,"summary":null,"details":{"id":750206,"contrCode":"SLST","stateCodes":["CA"],"name":"MOUNT TAMALPAIS SP","baseURL":null,"imageURL":null,"crowdriffId":null,"verifiablecampwiz.Availability":false,"campwiz.Availability":null,"affiliation":{"facilityID":0,"name":"","url":null,"agencies":[{"id":750010,"code":"CA State Parks","name":"California State Parks","logo":null,"url":null}]},"facilityTypes":["camping"],"description":null,"flexResult":null,"cta":{"caption":"label_cta_check_campwiz.Availability","url":null,"type":"LISTING"},"dayUse":true,"dayUseOnly":true,"ratingSupport":false,"rating":null,"actvAdvInd":null,"favoriteSupport":true,"favorite":false,"webAddress":null,"coordinates":{"latitude":37.9038889,"latitudeDec":null,"latitudeDegMinSec":null,"longitude":-122.595,"longitudeDec":null,"longitudeDegMinSec":null},"hiddenOnMap":false,"crossOverCustomLanding":false,"legacyRequired":false,"lineOfBusinesses":null,"offeringSupport":null,"nonClientFacility":true},"logoSrc":null},{"type":"camping","namingId":"INDP_722505","namingLabel":"Marin RV Park","id":722505,"name":"Marin RV Park","targetItem":false,"matchingFilters":true,"reservableType":null,"available":false,"proximity":13.38,"summary":null,"details":{"id":722505,"contrCode":"INDP","stateCodes":["CA"],"name":"Marin RV Park","baseURL":"/unifSearchInterface.do?interface=camping&contractCode=INDP&parkId=722505","imageURL":"/webphotos/INDP/pid722505/0/180x120.jpg","crowdriffId":null,"verifiablecampwiz.Availability":false,"campwiz.Availability":null,"affiliation":{"facilityID":0,"name":"","url":null,"agencies":[{"id":720011,"code":"Good Sam Park","name":"Good Sam Park","logo":null,"url":null}]},"facilityTypes":["camping"],"description":null,"flexResult":null,"cta":{"caption":"label_cta_check_campwiz.Availability","url":"https://www.goodsam.com/campgrounds-rv-parks/details/default.aspx?cgid=100011904&utm_source=Reserve%20America&utm_medium=referral&utm_campaign=100011904","type":"LISTING"},"dayUse":false,"dayUseOnly":false,"ratingSupport":false,"rating":null,"actvAdvInd":null,"favoriteSupport":true,"favorite":false,"webAddress":"https://www.goodsam.com/campgrounds-rv-parks/details/default.aspx?cgid=100011904&utm_source=Reserve%20America&utm_medium=referral&utm_campaign=100011904","coordinates":{"latitude":37.9411111,"latitudeDec":null,"latitudeDegMinSec":null,"longitude":-122.5151806,"longitudeDec":null,"longitudeDegMinSec":null},"hiddenOnMap":false,"crossOverCustomLanding":false,"legacyRequired":false,"lineOfBusinesses":["CAMPING"],"offeringSupport":[{"business":"CAMPING","type":"LEGACY","url":"/unifSearchInterface.do?interface=campavdetails&contractCode=INDP&parkId=722505&legacy=true"}],"nonClientFacility":false},"logoSrc":null},{"type":"camping","namingId":"EB_110458","namingLabel":"Reinhardt Redwood Regional Park","id":110458,"name":"Reinhardt Redwood Regional Park","targetItem":false,"matchingFilters":true,"reservableType":null,"available":false,"proximity":14.28,"summary":null,"details":{"id":110458,"contrCode":"EB","stateCodes":["CA"],"name":"Reinhardt Redwood Regional Park","baseURL":"/camping/reinhardt-redwood-regional-park/r/facilityDetails.do?contractCode=EB&parkId=110458","imageURL":"/webphotos/EB/pid110458/0/180x120.jpg","crowdriffId":null,"verifiablecampwiz.Availability":true,"campwiz.Availability":{"available":false,"reservableType":"FIELD_AVAILABLE"},"affiliation":{"facilityID":0,"name":"","url":null,"agencies":[{"id":110000,"code":"East Bay Parks","name":"East Bay Parks","logo":null,"url":null}]},"facilityTypes":["camping"],"description":null,"flexResult":null,"cta":{"caption":"label_cta_find_next_available","url":null,"type":null},"dayUse":false,"dayUseOnly":false,"ratingSupport":false,"rating":null,"actvAdvInd":null,"favoriteSupport":true,"favorite":false,"webAddress":"www.ebparks.org/redwood","coordinates":{"latitude":37.8313889,"latitudeDec":null,"latitudeDegMinSec":null,"longitude":-122.1997222,"longitudeDec":null,"longitudeDegMinSec":null},"hiddenOnMap":false,"crossOverCustomLanding":false,"legacyRequired":false,"lineOfBusinesses":["CAMPING"],"offeringSupport":[{"business":"CAMPING","type":"LEGACY","url":"/unifSearchInterface.do?interface=campavdetails&contractCode=EB&parkId=110458&legacy=true"}],"nonClientFacility":false},"logoSrc":null},{"type":"camping","namingId":"EB_110550","namingLabel":"Sibley Volcanic Regional Preserve","id":110550,"name":"Sibley Volcanic Regional Preserve","targetItem":false,"matchingFilters":true,"reservableType":null,"available":false,"proximity":14.8,"summary":null,"details":{"id":110550,"contrCode":"EB","stateCodes":["CA"],"name":"Sibley Volcanic Regional Preserve","baseURL":"/camping/sibley-volcanic-regional-preserve/r/facilityDetails.do?contractCode=EB&parkId=110550","imageURL":"/webphotos/EB/pid110550/0/180x120.jpg","crowdriffId":null,"verifiablecampwiz.Availability":true,"campwiz.Availability":{"available":false,"reservableType":"FIELD_AVAILABLE"},"affiliation":{"facilityID":0,"name":"","url":null,"agencies":[{"id":110000,"code":"East Bay Parks","name":"East Bay Parks","logo":null,"url":null}]},"facilityTypes":["camping"],"description":null,"flexResult":null,"cta":{"caption":"label_cta_find_next_available","url":null,"type":null},"dayUse":false,"dayUseOnly":false,"ratingSupport":false,"rating":null,"actvAdvInd":null,"favoriteSupport":true,"favorite":false,"webAddress":"http://www.ebparks.org/parks/sibley","coordinates":{"latitude":37.8477778,"latitudeDec":null,"latitudeDegMinSec":null,"longitude":-122.1983333,"longitudeDec":null,"longitudeDegMinSec":null},"hiddenOnMap":false,"crossOverCustomLanding":false,"legacyRequired":false,"lineOfBusinesses":["CAMPING"],"offeringSupport":[{"business":"CAMPING","type":"LEGACY","url":"/unifSearchInterface.do?interface=campavdetails&contractCode=EB&parkId=110550&legacy=true"}],"nonClientFacility":false},"logoSrc":null},{"type":"camping","namingId":"EB_110460","namingLabel":"Tilden Regional Park","id":110460,"name":"Tilden Regional Park","targetItem":false,"matchingFilters":true,"reservableType":null,"available":false,"proximity":14.95,"summary":null,"details":{"id":110460,"contrCode":"EB","stateCodes":["CA"],"name":"Tilden Regional Park","baseURL":"/camping/tilden-regional-park/r/facilityDetails.do?contractCode=EB&parkId=110460","imageURL":"/webphotos/EB/pid110460/0/180x120.jpg","crowdriffId":null,"verifiablecampwiz.Availability":true,"campwiz.Availability":{"available":false,"reservableType":"FIELD_AVAILABLE"},"affiliation":{"facilityID":0,"name":"","url":null,"agencies":[{"id":110000,"code":"East Bay Parks","name":"East Bay Parks","logo":null,"url":null}]},"facilityTypes":["camping"],"description":null,"flexResult":null,"cta":{"caption":"label_cta_find_next_available","url":null,"type":null},"dayUse":false,"dayUseOnly":false,"ratingSupport":false,"rating":null,"actvAdvInd":null,"favoriteSupport":true,"favorite":false,"webAddress":"www.ebparks.org/parks/tilden","coordinates":{"latitude":37.905,"latitudeDec":null,"latitudeDegMinSec":null,"longitude":-122.2444444,"longitudeDec":null,"longitudeDegMinSec":null},"hiddenOnMap":false,"crossOverCustomLanding":false,"legacyRequired":false,"lineOfBusinesses":["CAMPING"],"offeringSupport":[{"business":"CAMPING","type":"LEGACY","url":"/unifSearchInterface.do?interface=campavdetails&contractCode=EB&parkId=110460&legacy=true"}],"nonClientFacility":false},"logoSrc":null},{"type":"camping","namingId":"SLST_750164","namingLabel":"CHINA CAMP SP","id":750164,"name":"CHINA CAMP SP","targetItem":false,"matchingFilters":true,"reservableType":null,"available":false,"proximity":16.95,"summary":null,"details":{"id":750164,"contrCode":"SLST","stateCodes":["CA"],"name":"CHINA CAMP SP","baseURL":null,"imageURL":null,"crowdriffId":null,"verifiablecampwiz.Availability":false,"campwiz.Availability":null,"affiliation":{"facilityID":0,"name":"","url":null,"agencies":[{"id":750010,"code":"CA State Parks","name":"California State Parks","logo":null,"url":null}]},"facilityTypes":["camping"],"description":null,"flexResult":null,"cta":{"caption":"label_cta_check_campwiz.Availability","url":null,"type":"LISTING"},"dayUse":true,"dayUseOnly":true,"ratingSupport":false,"rating":null,"actvAdvInd":null,"favoriteSupport":true,"favorite":false,"webAddress":null,"coordinates":{"latitude":38.0008333,"latitudeDec":null,"latitudeDegMinSec":null,"longitude":-122.4605556,"longitudeDec":null,"longitudeDegMinSec":null},"hiddenOnMap":false,"crossOverCustomLanding":false,"legacyRequired":false,"lineOfBusinesses":null,"offeringSupport":null,"nonClientFacility":true},"logoSrc":null},{"type":"camping","namingId":"EB_110457","namingLabel":"Point Pinole Regional Shoreline","id":110457,"name":"Point Pinole Regional Shoreline","targetItem":false,"matchingFilters":true,"reservableType":null,"available":false,"proximity":16.96,"summary":null,"details":{"id":110457,"contrCode":"EB","stateCodes":["CA"],"name":"Point Pinole Regional Shoreline","baseURL":"/camping/point-pinole-regional-shoreline/r/facilityDetails.do?contractCode=EB&parkId=110457","imageURL":"/webphotos/EB/pid110457/0/180x120.jpg","crowdriffId":null,"verifiablecampwiz.Availability":true,"campwiz.Availability":{"available":false,"reservableType":"FIELD_AVAILABLE"},"affiliation":{"facilityID":0,"name":"","url":null,"agencies":[{"id":110000,"code":"East Bay Parks","name":"East Bay Parks","logo":null,"url":null}]},"facilityTypes":["camping"],"description":null,"flexResult":null,"cta":{"caption":"label_cta_find_next_available","url":null,"type":null},"dayUse":false,"dayUseOnly":false,"ratingSupport":false,"rating":null,"actvAdvInd":null,"favoriteSupport":true,"favorite":false,"webAddress":"www.ebparks.org/parks/pt_pinole","coordinates":{"latitude":37.9916667,"latitudeDec":null,"latitudeDegMinSec":null,"longitude":-122.3561111,"longitudeDec":null,"longitudeDegMinSec":null},"hiddenOnMap":false,"crossOverCustomLanding":false,"legacyRequired":false,"lineOfBusinesses":["CAMPING"],"offeringSupport":[{"business":"CAMPING","type":"LEGACY","url":"/unifSearchInterface.do?interface=campavdetails&contractCode=EB&parkId=110457&legacy=true"}],"nonClientFacility":false},"logoSrc":null},{"type":"camping","namingId":"EB_110004","namingLabel":"Anthony Chabot","id":110004,"name":"Anthony Chabot","targetItem":false,"matchingFilters":true,"reservableType":null,"available":false,"proximity":19.03,"summary":null,"details":{"id":110004,"contrCode":"EB","stateCodes":["CA"],"name":"Anthony Chabot","baseURL":"/camping/anthony-chabot/r/facilityDetails.do?contractCode=EB&parkId=110004","imageURL":"/webphotos/EB/pid110004/0/180x120.jpg","crowdriffId":null,"verifiablecampwiz.Availability":true,"campwiz.Availability":{"available":false,"reservableType":"FIELD_AVAILABLE"},"affiliation":{"facilityID":0,"name":"","url":null,"agencies":[{"id":110000,"code":"East Bay Parks","name":"East Bay Parks","logo":null,"url":null}]},"facilityTypes":["camping"],"description":null,"flexResult":null,"cta":{"caption":"label_cta_find_next_available","url":null,"type":null},"dayUse":false,"dayUseOnly":false,"ratingSupport":false,"rating":null,"actvAdvInd":null,"favoriteSupport":true,"favorite":false,"webAddress":"www.ebparks/org/parks/anthony_chabot","coordinates":{"latitude":37.7352778,"latitudeDec":null,"latitudeDegMinSec":null,"longitude":-122.0961111,"longitudeDec":null,"longitudeDegMinSec":null},"hiddenOnMap":false,"crossOverCustomLanding":false,"legacyRequired":false,"lineOfBusinesses":["CAMPING"],"offeringSupport":[{"business":"CAMPING","type":"LEGACY","url":"/unifSearchInterface.do?interface=campavdetails&contractCode=EB&parkId=110004&legacy=true"}],"nonClientFacility":false},"logoSrc":null},{"type":"camping","namingId":"EB_110451","namingLabel":"Briones Regional Park","id":110451,"name":"Briones Regional Park","targetItem":false,"matchingFilters":true,"reservableType":null,"available":false,"proximity":20.13,"summary":null,"details":{"id":110451,"contrCode":"EB","stateCodes":["CA"],"name":"Briones Regional Park","baseURL":"/camping/briones-regional-park/r/facilityDetails.do?contractCode=EB&parkId=110451","imageURL":null,"crowdriffId":null,"verifiablecampwiz.Availability":true,"campwiz.Availability":{"available":false,"reservableType":"FIELD_AVAILABLE"},"affiliation":{"facilityID":0,"name":"","url":null,"agencies":[{"id":110000,"code":"East Bay Parks","name":"East Bay Parks","logo":null,"url":null}]},"facilityTypes":["camping"],"description":null,"flexResult":null,"cta":{"caption":"label_cta_find_next_available","url":null,"type":null},"dayUse":false,"dayUseOnly":false,"ratingSupport":false,"rating":null,"actvAdvInd":null,"favoriteSupport":true,"favorite":false,"webAddress":"www.ebparks.org/parks/briones","coordinates":{"latitude":37.9330556,"latitudeDec":null,"latitudeDegMinSec":null,"longitude":-122.1502778,"longitudeDec":null,"longitudeDegMinSec":null},"hiddenOnMap":false,"crossOverCustomLanding":false,"legacyRequired":false,"lineOfBusinesses":["CAMPING"],"offeringSupport":[{"business":"CAMPING","type":"LEGACY","url":"/unifSearchInterface.do?interface=campavdetails&contractCode=EB&parkId=110451&legacy=true"}],"nonClientFacility":false},"logoSrc":null},{"type":"camping","namingId":"SLST_750182","namingLabel":"HALF MOON BAY SB","id":750182,"name":"HALF MOON BAY SB","targetItem":false,"matchingFilters":true,"reservableType":null,"available":false,"proximity":20.51,"summary":null,"details":{"id":750182,"contrCode":"SLST","stateCodes":["CA"],"name":"HALF MOON BAY SB","baseURL":null,"imageURL":null,"crowdriffId":null,"verifiablecampwiz.Availability":false,"campwiz.Availability":null,"affiliation":{"facilityID":0,"name":"","url":null,"agencies":[{"id":750010,"code":"CA State Parks","name":"California State Parks","logo":null,"url":null}]},"facilityTypes":["camping"],"description":null,"flexResult":null,"cta":{"caption":"label_cta_check_campwiz.Availability","url":null,"type":"LISTING"},"dayUse":true,"dayUseOnly":true,"ratingSupport":false,"rating":null,"actvAdvInd":null,"favoriteSupport":true,"favorite":false,"webAddress":null,"coordinates":{"latitude":37.4597222,"latitudeDec":null,"latitudeDegMinSec":null,"longitude":-122.4441667,"longitudeDec":null,"longitudeDegMinSec":null},"hiddenOnMap":false,"crossOverCustomLanding":false,"legacyRequired":false,"lineOfBusinesses":null,"offeringSupport":null,"nonClientFacility":true},"logoSrc":null}],"typesSummary":{"ContractType[FEDERAL]":172,"ContractType[STATE]":60,"ContractType[REGIONAL]":0,"ContractType[COUNTY]":16,"ContractType[PRIVATE]":89,"ContractType[OTHER]":0},"actvAdvInfo":null}